{
  "name": "Genre",
  "fields": [
    {
      "fieldName": "tmdbId",
      "fieldType": "String",
      "fieldValidateRules": ["required", "unique"]
    },
    {
      "fieldName": "name",
      "fieldType": "String",
      "fieldValidateRules": ["required"]
    },
    {
      "fieldName": "lastTMDBUpdate",
      "fieldType": "LocalDate",
      "fieldValidateRules": ["required"]
    }
  ],
  "relationships": [
    {
      "relationshipType": "many-to-many",
      "otherEntityName": "movie",
      "otherEntityRelationshipName": "genre",
      "relationshipName": "movie",
      "otherEntityField": "title",
      "ownerSide": false
    }
  ],
  "javadoc": "The Genre entity.\\n@author A true hipster",
  "entityTableName": "genre",
  "dto": "mapstruct",
  "pagination": "infinite-scroll",
  "service": "serviceClass",
  "jpaMetamodelFiltering": false,
  "fluentMethods": true,
  "readOnly": false,
  "embedded": false,
  "applications": ["mmdbweb", "mmdbmstmdb"],
  "microserviceName": "mmdbmstmdb",
  "clientRootFolder": "mmdbmstmdb",
  "databaseType": "mongodb",
  "changelogDate": "20210213172134"
}
